…
# Set the number of workers for parallel processing
options("edgr.n_workers"=3)
```

Get the document index files for the years 2020 to 2023

``` r
doc_index_data <- gather_doc_index_data(
  .years=2021:2023, .data_dir=fs::dir_create(here::here("README_files/data/"))
)

doc_index_data
#> # A tibble: 22,339 × 6
#>    com_cik com_name              doc_an doc_form_type doc_date_filed doc_raw_url
#>    <chr>   <chr>                 <chr>  <chr>         <date>         <chr>      
#>  1 1000209 MEDALLION FINANCIAL … 00015… 10-K          2021-03-16     https://ww…
#>  2 1000228 HENRY SCHEIN INC      00010… 10-K          2021-02-17     https://ww…
#>  3 1000229 CORE LABORATORIES N V 00015… 10-K          2021-02-08     https://ww…
#>  4 1000232 KENTUCKY BANCSHARES … 00015… 10-K          2021-03-03     https://ww…
#>  5 1000298 IMPAC MORTGAGE HOLDI… 00015… 10-K          2021-03-12     https://ww…
#>  6 1000623 SCHWEITZER MAUDUIT I… 00010… 10-K          2021-03-01     https://ww…
#>  7 1000683 BLONDER TONGUE LABOR… 00012… 10-K          2021-03-25     https://ww…
#>  8 1000694 NOVAVAX INC           00010… 10-K          2021-03-01     https://ww…
#>  9 1000697 WATERS CORP /DE/      00011… 10-K          2021-02-24     https://ww…
#> 10 1000753 INSPERITY, INC.       00010… 10-K          2021-02-12     https://ww…
#> # ℹ 22,329 more rows
```

{edgr} includes a scraped dataset `com_indu_data` that includes
information on companies’ sectors.

``` r
com_indu_data
#> # A tibble: 64,812 × 4
#>    com_cik indu_sic indu_office                       indu_title  
#>    <chr>   <fct>    <fct>                             <fct>       
#>  1 825171  1000     Office of Energy & Transportation METAL MINING
#>  2 1011903 1000     Office of Energy & Transportation METAL MINING
#>  3 1071832 1000     Office of Energy & Transportation METAL MINING
#>  4 1194506 1000     Office of Energy & Transportation METAL MINING
#>  5 1171008 1000     Office of Energy & Transportation METAL MINING
#>  6 1050602 1000     Office of Energy & Transportation METAL MINING
#>  7 830821  1000     Office of Energy & Transportation METAL MINING
#>  8 1318196 1000     Office of Energy & Transportation METAL MINING
#>  9 1360903 1000     Office of Energy & Transportation METAL MINING
#> 10 1142462 1000     Office of Energy & Transportation METAL MINING
#> # ℹ 64,802 more rows

com_indu_data |> distinct(indu_sic, indu_title)
#> # A tibble: 437 × 2
#>    indu_sic indu_title                                           
#>    <fct>    <fct>                                                
#>  1 1000     METAL MINING                                         
#>  2 1040     GOLD AND SILVER ORES                                 
#>  3 1090     MISCELLANEOUS METAL ORES                             
#>  4 1220     BITUMINOUS COAL & LIGNITE MINING                     
#>  5 1221     BITUMINOUS COAL & LIGNITE SURFACE MINING             
#>  6 1311     CRUDE PETROLEUM & NATURAL GAS                        
#>  7 1381     DRILLING OIL & GAS WELLS                             
#>  8 1382     OIL & GAS FIELD EXPLORATION SERVICES                 
#>  9 1389     OIL & GAS FIELD SERVICES, NEC                        
#> 10 1400     MINING & QUARRYING OF NONMETALLIC MINERALS (NO FUELS)
#> # ℹ 427 more rows
```

You can use it to get the CIKs for companies from sectors that are
relevant for your analysis.

``` r
com_indu_health_data <- com_indu_data |> filter(
  str_detect(indu_sic, "^80\\d\\d$")
)

com_indu_health_data
#> # A tibble: 1,186 × 4
#>    com_cik indu_sic indu_office                          indu_title             
#>    <chr>   <fct>    <fct>                                <fct>                  
#>  1 1950429 8000     Industrial Applications and Services SERVICES-HEALTH SERVIC…
#>  2 1444144 8000     Industrial Applications and Services SERVICES-HEALTH SERVIC…
#>  3 1844507 8000     Industrial Applications and Services SERVICES-HEALTH SERVIC…
#>  4 22872   8000     Industrial Applications and Services SERVICES-HEALTH SERVIC…
#>  5 1713210 8000     Industrial Applications and Services SERVICES-HEALTH SERVIC…
#>  6 908516  8000     Industrial Applications and Services SERVICES-HEALTH SERVIC…
#>  7 1836967 8000     Industrial Applications and Services SERVICES-HEALTH SERVIC…
#>  8 1048494 8000     Industrial Applications and Services SERVICES-HEALTH SERVIC…
#>  9 1839998 8000     Industrial Applications and Services SERVICES-HEALTH SERVIC…
#> 10 1257499 8000     Industrial Applications and Services SERVICES-HEALTH SERVIC…
#> # ℹ 1,176 more rows
…
